703523 530564 509
343054 330065 366
39561 282443 443
198703 703877 509
208323 361817 443
811430 660260 504
812398 577574 509
34229 18764 308
340152 228706 443
891089 354184 525
197239 900350 525
323192 657313 509
595227 999545 525
768953 520679 509
968285 119139 525
145191 100498 375
943063 74595 525
953698 416858 525
569012 442124 470
106288 830379 509
88264 960547 525
944884 574827 525
177423 954082 525
455928 208823 449
914342 155657 525
716431 713127 380
537475 641846 509
708103 13115 509
363725 573501 470
169680 919142 525
443158 292128 449
305024 545301 470
11427 946111 525
801298 512408 509
272520 247726 407
839624 259219 525
881268 172380 525
472748 697747 509
849420 681660 525
327598 197794 443
289410 443270 449
25169 146264 375
209227 544104 470
58479 649290 509
737353 894346 525
953417 989365 458
85388 778151 509
799842 783635 468
434709 32531 449
763858 81573 509
430376 613497 470
70900 147621 375
315955 929198 525
796454 329541 509
119539 186363 383
366003 738903 509
364229 968094 525
635928 901830 525
762641 698934 504
477084 628497 509
19511 1950 279
871492 120826 525
846082 263850 525
866935 566163 525
792897 504273 509
266835 2315 443
618856 633467 509
906472 364959 525
2334 57394 340
984944 282942 525
998423 776850 525
318816 928 443
537561 977668 525
552362 982536 525
649120 153477 509
716427 727458 411
679182 214094 509
13474 761825 509
544101 857451 525
976256 836387 525
543980 721145 509
230452 921638 525
700992 916632 525
876179 734621 525
812127 131387 509
853660 763566 525
400856 125758 443
801705 490159 509
643168 842084 525
987381 478805 525
158854 443446 449
685952 114709 509
181314 532967 470
239961 675774 509
188276 109422 383
747827 295177 509
566385 166570 470
970249 374513 525
921908 404341 525
763561 568868 509
487098 743469 509
69431 683136 509
83502 308385 443
841969 615796 525
753729 815556 468
584435 197876 470
721762 491579 509
171891 710321 509
574074 39524 470
590938 832305 509
477164 283418 449
574346 474561 470
261562 399254 441
219294 114671 386
246720 533202 470
789557 279052 509
888010 964333 507
616817 591942 447
733404 984278 525
986102 495646 525
156442 926721 525
624171 113692 470
651217 27366 509
550483 821578 509
400998 970678 525
792041 205697 509
124309 503160 449
387268 638581 509
788656 103082 509
779057 974567 525
376837 606192 470
955120 297411 525
462251 999360 525
585018 54680 470
513584 494966 470
832054 504075 509
51475 119766 354
329342 7190 443
543117 732774 509
245458 937872 525
719044 85947 509
772677 400312 509
365376 826750 509
393428 46227 443
491694 641469 509
603815 488040 470
778597 628352 504
174773 846833 525
428864 83729 449
663573 347568 509
915532 342914 525
113980 540123 470
977352 345020 525
486024 245148 449
589451 949123 525
486512 730026 509
509809 887516 525
414816 854035 525
962641 961949 383
863650 4122 525
918843 837475 525
536181 292247 470
462029 966775 525
484175 103307 449
524311 173864 470
134681 636829 509
847419 645769 525
769912 411082 509
657010 118733 509
967885 616323 525
364857 844754 525
736641 718168 424
596256 662316 509
338450 473427 449
134774 698420 509
320585 182038 443
742852 247215 509
505818 682692 509
491562 406 449
77160 569017 470
914914 184664 525
684593 665354 398
441450 300993 449
528327 531276 377
551257 158317 470
624941 899075 525
725920 138560 509
86903 68060 351
534209 963116 525
370738 850327 525
367313 799596 509
113910 146213 375
17432 346060 443
12909 325783 443
362080 748428 509
932883 533232 525
141473 104259 354
944594 294542 525
689418 328218 509
937665 888101 476
218149 849333 525
278092 547936 470
63793 452053 449
492978 357234 449
694767 924411 525
172068 820534 509
774005 42858 509
211570 204754 373
652516 178063 509
474597 15138 449
860868 91799 525
129926 769644 509
345221 103330 443
133296 413825 449
840523 818867 525
403907 634687 509
154540 354269 443
113663 522488 470
