694610 199553
561707 992193
439555 580437
935122 872677
796841 730010
245155 583684
976988 234009
869666 273445
169565 148272
83180 563703
65104 156298
356846 9862
43608 263955
444931 591786
523285 167480
358673 748287
886487 936042
710711 97412
352543 565601
726803 822802
984861 117141
307308 247097
510329 820274
326938 452622
631298 164850
338649 834078
686139 518180
906740 518242
805692 40440
622335 170153
380253 324872
609824 457562
930802 640764
34932 374393
302572 15776
83035 474034
861375 12018
182740 180255
315747 379218
389100 107923
833215 868250
936962 568222
743801 580556
128445 80748
832907 52629
559224 727640
176879 834252
514352 6112
971142 807752
466191 322059
255877 113525
586802 13609
644738 709639
105258 130591
248841 821901
190231 669884
128159 276202
822534 144535
355645 591726
290935 149791
942896 8257
91727 17699
347894 240413
96375 690377
517746 612330
520502 929968
246289 437096
689977 214376
936013 805533
842627 255266
811938 185659
5778 576273
786992 504315
753654 476159
323165 746888
717442 718310
700721 288161
746498 680324
581583 314580
725562 334110
826930 920861
965432 513355
81704 353975
995087 128075
613022 74168
735094 613886
174143 909539
998971 869310
547289 902129
647511 999800
951695 2163
969248 258117
964582 944923
513104 879784
348747 712725
883817 301911
765853 80206
388066 874930
798569 501954
212473 169103
467906 962972
46628 61570
424431 857138
413183 338215
243854 723315
373574 345692
979592 60867
671589 365321
817012 817180
76476 63197
165976 625610
385934 331228
574695 824052
889726 555021
799528 892168
928873 664290
24515 934688
363945 792608
237154 202868
254589 591828
342158 513003
698171 529112
902363 866270
922637 207036
506541 139091
855696 119530
374937 882316
786839 82502
626787 389508
789030 577782
108063 609999
475538 697000
332415 644806
598406 425807
928981 711832
504001 325386
974417 665592
841394 377312
796322 402923
645345 771065
531026 437257
405705 280696
237756 711377
427660 285313
638319 387671
132170 857732
139418 818146
854977 668442
831581 286138
891884 308012
152304 150441
633847 648917
880038 577560
166952 524776
449964 115080
238528 562187
849605 288901
561769 855964
539803 460007
706699 872007
37346 547670
273879 419488
426044 842760
403450 500061
876989 567101
62716 869552
332377 359548
502261 922362
64206 245765
667579 364919
682290 366274
728663 81779
409572 21184
435025 357387
251353 949594
711404 772106
805221 522494
286461 661092
628617 233160
358078 469915
719216 598742
386072 227403
913291 602751
525685 960363
682933 678516
619917 511499
101775 533190
763260 843876
64487 905766
349568 8425
664314 507358
856497 749077
590399 457976
738971 634303
680851 625768
972543 218357
821588 697701
454847 398533
864807 982755
102864 891046
620001 469886
871812 183830
638038 833237
281732 227038
748321 210794
439406 212893
263035 231417
112716 23432
511280 313909
257673 255419
637424 835347
100932 785876
840230 377963
809282 426041
632929 918404
753376 331859
664912 825420
77164 837866
686790 454521
43001 320690
560621 419898
51412 228558
157857 468642
901206 627500
792176 774231
909824 521866
735977 242115
551504 740791
239491 354909
608824 783010
308092 501622
38788 895247
128888 340180
836417 602466
203428 924301
398654 293692
215434 814363
99736 448095
251985 500820
131102 154923
32677 326228
876920 259527
61324 782326
617120 65191
805863 201709
665535 539116
393007 515682
785692 107373
915950 102300
373760 485269
777884 95760
304762 551176
850753 975716
146893 98139
745133 464351
628732 867994
949119 189508
78259 732478
633077 593413
654772 241817
448124 261821
216375 625661
718157 53293
84602 287638
355287 439265
999440 796654
169107 329440
607360 822073
500884 74333
57984 421595
360867 61973
623545 931443
104905 644256
118126 329618
984568 919796
15510 956633
621860 796902
651602 857858
759167 416460
174765 716417
391935 937405
532485 65121
655684 981025
458481 509812
200668 664071
133148 388244
79522 425071
152513 605767
550491 689312
540467 447947
879143 96113
747213 654796
29121 792574
638610 615077
914884 544818
200183 692962
661930 193993
229967 831863
4626 706885
12761 200524
