176442 909354 525
930988 367614 525
142449 314776 443
262320 942898 525
996210 630344 525
444636 115113 449
273299 797868 509
164160 630128 509
393930 297702 441
46921 912123 525
418128 813690 509
23662 435104 449
200040 984472 525
581637 998548 525
166169 56421 383
813698 219122 509
34580 40448 324
633990 787979 504
808666 55551 509
224488 650591 509
377672 113818 443
762508 147219 509
333107 526716 470
913852 283957 525
838785 575747 525
685745 730629 504
21082 343815 443
160259 513564 470
918907 166170 525
934994 31363 525
613289 791098 509
181158 221183 386
231213 797380 509
954096 501790 525
807697 783834 468
581238 202030 470
624969 739578 509
427830 663246 509
748271 988626 525
414893 362815 449
812893 767562 468
767044 714635 424
343010 705958 509
71410 5367 340
64415 643404 509
672529 548098 509
129921 115645 336
206418 269442 443
867102 661884 525
32227 492627 449
772378 408928 509
173971 634876 509
471577 327704 449
506388 617414 470
478299 55153 449
271896 545308 470
451272 106251 449
485920 135181 449
276193 143126 443
266040 548560 470
827771 744656 468
122756 7111 354
340621 928032 525
644663 402127 509
480542 843753 525
303416 26719 443
377085 45560 443
392927 365339 436
35695 213438 383
132362 637268 509
915490 320804 525
409297 358451 436
188474 234285 443
35633 493732 449
389305 840501 525
916705 676755 525
738739 168775 509
840229 101727 525
942992 165753 525
512954 890264 525
121557 586386 470
165040 335009 443
727253 418716 509
462010 822775 509
293698 19130 443
231849 76467 443
198439 799466 509
325854 484005 449
722944 998443 525
598197 337463 470
66436 564012 470
470485 849265 525
35364 118865 354
322025 846647 525
954119 154224 525
650192 286317 509
755431 722065 424
513509 395601 470
131646 706551 509
349377 231770 441
92227 726213 509
844869 58155 525
639904 259311 509
526303 243818 470
137748 313742 443
930823 733482 525
606184 576651 434
688920 734415 504
288363 569223 470
566654 598294 434
936410 940439 507
54112 383411 443
73148 420180 449
634917 172276 509
135786 784285 509
779128 32993 509
814418 774515 468
160500 208567 373
25626 462902 449
840607 77077 525
554473 32512 470
351864 267861 441
264162 252383 407
92597 217835 386
428338 687048 509
858834 897104 445
53093 469591 449
899184 136761 525
289153 531221 470
206333 1433 383
552645 330077 470
796576 516393 509
633140 366100 509
575081 859936 525
405756 951071 525
876128 659350 525
645686 205506 509
771659 804425 468
429147 76057 449
362306 932346 525
678329 360644 509
236084 164132 443
666517 823524 504
804708 497841 509
365017 100852 443
311859 503590 449
949710 283791 525
559317 647266 509
976244 16926 525
23294 417385 449
513424 624157 452
85293 970998 525
495764 108161 449
214907 708441 509
983006 625291 525
268509 668749 509
582929 974111 525
437671 148421 449
899487 547252 525
420220 562117 470
523490 88458 470
383491 391542 436
301452 460760 449
695371 678488 442
939862 406617 525
940013 127972 525
861350 895269 445
308961 433679 449
217002 266394 443
78903 403651 443
2625 699414 509
148681 225066 386
909886 268065 525
387882 707696 509
371056 754115 509
280290 747891 509
272641 421954 449
339999 48159 443
357777 306689 441
277051 295669 389
135994 595148 470
910234 420067 525
37561 870994 525
413876 463414 444
614112 512762 452
906166 649473 525
505405 119281 449
136835 996644 525
47871 776156 509
622678 795843 509
9122 969768 525
647989 154923 509
44559 268865 443
966426 151505 525
341509 746811 509
226812 499507 449
77298 50561 351
289443 447702 449
365634 430698 449
744568 950371 525
43951 104053 351
304035 270179 407
739338 512543 509
836027 797568 450
967263 381603 525
401994 920403 525
769675 595745 509
723999 913508 525
560824 226645 470
616754 854169 525
167469 242912 443
414681 103998 449
838624 551751 525
159158 80317 383
397969 82242 443
404466 425511 449
70904 567987 470
804922 813133 406
24381 338888 443
907560 173266 525
71249 150889 375
63405 937009 525
783150 252171 509
896025 641350 525
355121 254003 441
692110 423518 509
222155 533902 470
902156 14624 525
813559 8170 509
473784 839373 525
712070 848267 525
933298 635129 525
755986 473056 509
606910 146817 470
83819 132362 354
104403 750037 509
7091 761052 509
333914 297861 384
188165 119022 383
345160 735168 509
489369 517425 470
