502422 779691 509
914452 520123 525
539018 736167 509
246243 861281 525
438232 925465 525
731988 486512 509
804672 65290 509
446711 678410 509
480395 520640 470
943971 715095 525
332006 355685 441
265597 609890 470
920332 949308 507
367608 118066 443
344756 668532 509
866063 990968 507
384993 25923 443
759781 771028 468
58 871136 525
76172 245424 443
98847 880472 525
491229 997445 525
260497 821848 509
287861 965787 525
325958 450537 449
576411 891289 525
836215 751682 468
305224 520651 470
540721 624646 452
761751 866408 525
78385 293051 443
259014 679937 509
811535 412801 509
200818 257391 443
430913 350573 449
914344 452779 525
602037 487011 470
940602 239573 525
891032 75827 525
439168 417677 418
37790 888011 525
922645 937182 476
844745 263373 525
713240 127569 509
675042 288717 509
107383 713956 509
802845 81750 509
425507 286760 449
487180 899895 525
547412 625689 447
676482 763916 504
915893 408227 525
28212 235437 443
201668 126157 383
238647 41645 443
244646 677095 509
917289 433110 525
994231 249880 525
735636 554203 509
792415 468841 509
276608 871461 525
211102 784470 509
697074 877272 525
69442 549912 470
349329 371323 410
167643 11318 383
866527 766460 525
742104 575657 509
360102 990076 525
129056 162347 383
380777 381692 286
523792 647489 509
149535 710978 509
205092 200858 342
736195 664328 504
27365 100193 351
425714 125351 449
332570 523851 470
13192 861359 525
38337 119002 354
433407 22162 449
127742 56767 354
714958 562973 509
487937 539270 470
805208 240178 509
871604 284336 525
517424 868623 525
296340 645035 509
771122 598345 509
526954 580822 452
352915 115968 443
136080 886181 525
836167 317143 509
241107 721194 509
77813 354775 443
951868 35259 525
586654 454875 470
753404 448419 509
204186 329653 443
600396 474828 470
53886 746725 509
861867 414634 525
638118 242055 509
20954 669007 509
486835 501040 426
546424 656358 509
163063 655732 509
67283 490715 449
478343 612639 470
372030 343467 441
7559 599400 470
714300 182862 509
712969 707052 411
777999 958733 525
231056 857796 525
933592 704240 525
715016 366919 509
566339 61661 470
473786 439332 444
422204 628342 509
655586 381053 509
722521 337069 509
437076 88712 449
563752 719783 509
353983 808054 509
355626 346151 379
915261 296612 525
194065 421057 449
617762 236944 470
128355 533663 470
854681 543601 525
579905 53070 470
589522 433557 470
853804 615185 525
969261 901736 507
692220 965639 525
129727 430944 449
490864 476377 413
333483 231343 407
455383 751904 509
406327 444391 449
744777 265028 509
426710 464396 444
652959 112195 509
644792 137739 509
908954 959725 507
263286 575358 470
921982 959384 507
232251 626710 509
462606 264049 449
631040 52043 509
75976 759922 509
333108 60148 443
625645 298924 470
788406 290897 509
724968 105554 509
238582 154433 443
42411 812405 509
733162 835036 468
456187 578291 470
862399 309895 525
137462 578725 470
906534 746349 525
859639 476974 525
80679 600244 470
604401 47512 470
316391 964954 525
413659 563763 470
275751 824764 509
745771 576781 509
167295 203903 365
694326 151137 509
970466 298068 525
108408 345692 443
714844 247571 509
736829 967064 525
608556 716127 509
862692 448332 525
128514 396081 443
301373 218538 443
522785 593886 452
697083 92760 509
180211 351391 443
324153 419486 449
521590 904311 525
789686 290381 509
265457 800496 509
39294 24604 324
695398 389054 509
114125 749199 509
293327 863253 525
239867 366828 441
812386 663002 504
293146 543976 470
784837 398822 509
235973 516770 470
819344 530193 509
203502 755921 509
856786 702215 525
209678 109295 383
278913 445784 449
158578 923289 525
728413 805835 468
460860 848894 525
134425 718327 509
546186 366351 470
643851 261736 509
691180 301547 509
893104 356330 525
518905 541375 439
641006 992624 525
198554 44005 383
778808 347513 509
578914 116438 470
31162 52577 340
881284 123962 525
54114 109767 354
360693 834669 509
485569 118090 449
762219 695860 504
824786 678727 504
875099 992642 507
274810 52060 443
595080 209450 470
325026 845880 525
315932 25880 443
176864 57105 383
942004 51110 525
758096 633455 504
793212 898138 525
246931 935589 525
446420 151610 449
889178 983100 507
163845 478952 449
938218 166362 525
799624 905155 525
16762 418975 449
123273 560550 470
482180 581549 470
870374 149192 525
942061 162413 525
278947 642593 509
472982 420347 444
356612 859342 525
488817 458710 444
757823 412598 509
293121 547614 470
243758 918926 525
863028 114043 525
447907 876537 525
12533 275003 443
463343 297351 449
308991 162071 443
144112 805249 509
709018 908736 525
279229 777919 509
681914 128641 509
183688 215648 373
809606 249908 509
24725 235512 443
145147 919861 525
941581 178229 525
194107 926661 525
18232 155182 375
860368 670089 525
490703 971776 525
412151 780658 509
637511 455513 509
977602 405023 525
693589 608588 509
270681 426966 449
180136 787827 509
512182 297172 470
638494 311121 509
846656 355103 525
392177 750654 509
5199 673424 509
480413 591532 470
674318 465512 509
909195 920150 476
958255 481796 525
91475 286243 443
728745 985648 525
849793 520549 525
547670 99651 470
946203 493946 525
671326 853532 525
