229073 654406
226406 483283
643946 668197
436170 530439
434518 453849
708765 734649
366510 385814
733810 947155
596917 963651
294399 425276
320886 379549
704602 711385
6423 927567
249070 720516
219529 402839
93713 700657
66833 372467
338527 742866
64330 923757
104311 809148
336108 629241
95518 197370
975222 979232
454633 901335
61908 601110
460659 561952
181371 426198
619141 663823
412188 851505
459576 522817
592672 862085
673105 677037
334082 737957
325753 565071
679406 807430
320908 995535
398956 518109
385707 724483
217408 425178
546705 797657
654093 747134
20790 382276
232821 497465
92129 379418
556064 680767
492261 642996
376331 883254
413695 960840
773955 886609
91291 781176
171391 910184
420318 908974
7372 317610
37106 460257
561025 797806
56694 457668
395219 443084
707170 768328
581737 876167
368274 639237
459279 720544
797693 938379
391319 955966
562248 915501
227918 881839
461731 483941
312482 597546
222555 744551
391795 989492
790288 878610
452470 852492
445938 811014
236603 748025
448005 991998
24050 151229
604663 752553
425084 735726
322292 603182
316811 714487
161600 833096
294932 652251
493035 936807
710352 760213
284740 296306
493630 622527
136711 655274
225951 966958
19636 598650
361798 593363
183005 997504
731899 962400
443762 968560
375119 548998
188406 910132
42361 322261
56230 501826
564117 741786
613732 716846
49310 898425
323559 613603
701411 766108
337417 497576
665811 989945
739792 817105
304448 712434
186032 788814
248610 716498
598607 626558
516100 783385
324631 989601
309870 612044
132241 961960
119776 586649
594983 714722
51093 846632
627915 948228
248633 711233
9664 34931
75782 966947
681459 698124
19916 254202
238760 269715
589311 967795
159004 955861
462586 768419
268085 513485
291231 362740
126970 981587
43648 981865
163989 758210
784574 853545
271769 885432
259374 326360
1460 71960
466520 884810
503571 578559
183078 659273
88691 935788
314759 508304
454865 573457
930935 944320
492480 904392
572030 717520
842312 981299
512437 636679
59478 493408
642450 747281
438148 848842
656045 750929
156891 586168
491709 692288
529073 927800
483883 880253
635310 850703
478082 861630
145374 743038
612784 828477
313463 347011
249391 702222
563945 740651
38994 465468
389980 469364
478799 997620
393833 871294
172005 234720
97519 682347
197753 659170
165608 505394
230297 453522
314504 980979
180777 913269
68544 572261
380896 520087
251744 507487
53067 754095
299218 461231
487000 902987
131557 472920
381551 940185
488551 617320
820388 988757
381339 818848
571832 934271
5210 173393
3717 477141
266614 267442
285048 631254
307157 950228
220625 352202
579084 719349
470765 585550
173939 755995
473264 812906
660424 798534
170626 414733
781663 852997
352847 529901
609796 823940
744035 993494
90704 785327
805898 811520
838819 863659
773911 793125
162695 872574
538330 942862
361514 840054
85510 841648
24640 808612
387944 513086
351997 967892
166102 913261
219250 380175
867267 895803
33953 287197
12869 242740
219728 757054
13067 920162
839069 875531
721979 956871
5554 240293
160406 997099
340872 606588
86392 147336
233684 365588
217096 342064
440964 587007
356447 595958
98391 477388
656958 702894
170168 653956
68259 437757
123946 350811
164511 480640
284606 325081
771123 817013
376930 575164
148608 529234
928530 945244
627246 653991
50683 804418
411272 869238
1 1
