31823 123495 354
969686 750417 525
49042 844700 525
962471 162507 525
531896 686300 509
867789 292151 525
309645 71695 443
628017 279863 509
221795 390618 443
345618 521118 470
11361 409497 443
289743 389101 441
560608 325421 470
625771 454603 470
920016 476053 525
242477 639219 509
224714 513196 470
199103 647070 509
301877 213968 443
143491 556019 470
488922 802434 509
352849 191917 443
858738 493665 525
230016 106386 386
984176 218016 525
405704 129751 443
360122 334215 441
369798 410107 449
843688 341609 525
206314 858488 525
510756 370279 449
967537 581609 525
129733 797603 509
309419 828646 509
444920 891804 525
745934 240925 509
49138 666325 509
488686 666214 509
999548 660660 525
478318 346199 449
87154 200730 383
220257 127515 386
58233 783483 509
373802 868896 525
246787 937628 525
948649 774696 525
9027 265493 443
855618 983456 507
589906 983879 525
468799 737069 509
894042 242476 525
5179 629971 509
635289 421819 509
600503 646815 509
572151 169960 470
572838 335286 470
207636 381163 443
504969 573892 470
40959 161434 383
272555 941684 525
229146 152911 386
656372 877656 525
386198 771734 509
855699 249958 525
62825 173692 383
83081 185872 383
853575 374510 525
175784 549278 470
269786 302946 407
282839 757841 509
116756 904664 525
115622 481581 449
306220 166944 443
726655 476564 509
117994 737976 509
752877 296453 509
846595 597262 525
272812 35785 443
864418 679685 525
156465 543543 470
952630 544244 525
174058 955931 525
323037 527512 470
915807 614053 525
586894 320793 470
971266 366271 525
309689 186458 443
28819 725217 509
734371 562078 509
583320 233334 470
276456 978110 525
418447 505834 444
686434 381808 509
61136 154094 375
723461 393747 509
932523 81459 525
877666 81532 525
473646 409876 449
437367 84121 449
499237 321916 449
502357 903709 525
42210 957621 525
782204 35467 509
534388 604150 452
470542 189261 449
27287 828356 509
82857 8118 351
740220 797549 468
306204 287783 389
809278 576160 509
874037 63062 525
43342 834213 509
846299 427224 525
140650 198641 383
188488 784459 509
606928 95602 470
886159 310678 525
477521 615513 470
840758 862194 419
661193 373003 509
975174 312264 525
959497 912986 507
955499 382189 525
808306 475393 509
412754 619758 470
890735 824828 525
804516 53892 509
842840 445551 525
424355 50791 449
469287 29778 449
493307 944860 525
680561 699049 442
73339 559170 470
888267 265150 525
429808 217031 449
867147 650121 525
255246 665928 509
171213 780299 509
650350 668820 442
272866 798789 509
342747 209446 443
425322 245742 449
704557 291450 509
640642 153216 509
476529 265870 449
703052 49182 509
66125 971606 525
454735 726614 509
294526 737625 509
92424 809243 509
334222 299685 384
817515 896936 525
593532 758697 509
387353 348453 423
633807 577153 509
778750 960668 525
794390 953235 525
103621 109894 354
940035 164222 525
238866 74918 443
430787 82681 449
611723 79779 470
852417 154970 525
975930 845367 507
973824 78213 525
473931 468002 382
983870 381838 525
591656 185921 470
230303 255994 443
866523 548209 525
370864 163357 443
903412 67241 525
13823 458348 449
817948 305826 509
178356 44633 383
541858 373615 470
99832 7059 351
112408 755639 509
836863 965042 525
475276 177156 449
858098 111601 525
144014 60101 375
703601 700011 411
975918 926774 507
8171 177897 383
341954 834231 509
818613 444113 509
838450 231915 525
210299 366521 443
558918 305973 470
604394 361067 470
258628 583286 470
468412 801907 509
447602 307044 449
920330 791018 525
518448 913611 525
749068 753758 424
86019 490868 449
150593 529805 470
768915 559155 509
723040 835881 468
33452 960038 525
140193 309150 443
62856 781350 509
106290 905724 525
97693 798063 509
207026 266858 443
545048 14539 470
576376 775605 509
872426 7275 525
620681 669634 509
686586 219187 509
823439 426430 509
982648 17970 525
692577 354271 509
608211 13438 470
53659 651825 509
491007 609158 470
679071 685580 380
854729 591001 525
537308 918621 525
619309 652753 509
44133 338635 443
59561 304536 443
461220 247377 449
826581 193852 509
238076 681846 509
808840 893064 525
632359 95112 509
552912 115149 470
836573 48038 509
870937 853664 419
319894 822419 509
962045 988598 458
291172 437565 449
581374 472686 470
686687 281940 509
303749 791933 509
