663388 806937
723748 103490
475854 810948
677912 37826
506657 607404
358906 732280
322676 870045
903202 73946
758714 73845
635109 874280
352384 462995
817397 659834
307664 177720
189593 722831
409198 292059
567539 48919
766284 542192
271957 810419
537531 742483
772239 452016
612753 8901
996344 521902
454531 469825
781888 209045
529495 720346
742022 296532
359994 931049
109455 401525
358236 591150
894567 180741
239713 346857
171325 635299
343844 123095
277046 560307
549676 270224
782434 213428
279922 525384
859540 147711
206049 822249
273471 826387
910362 224520
375203 719266
390989 874537
549029 4155
983923 517018
655376 743997
408465 705347
195897 546332
167764 884056
185099 61958
937442 579084
854330 32459
336097 522020
246647 644784
304228 106200
286362 854435
824009 317909
672701 453878
819619 406281
799359 317379
583109 870225
814503 691460
183472 406545
496352 312374
314800 679654
360218 664576
929448 370363
728718 420809
304095 152598
353607 30159
514298 755326
203024 328653
310854 410800
334887 981931
48578 356183
277935 813051
472988 381301
548658 563580
444895 344591
343600 780734
956390 302267
330515 26389
962125 510741
303831 709810
156879 49682
731272 665428
597584 899259
612365 983288
290617 939414
286481 654514
770055 666533
97886 443146
265811 767094
99309 455204
696483 111924
817121 253517
885440 319505
182552 91922
156110 208388
962194 594541
919608 414498
642680 914761
145494 269589
152806 313090
419286 946367
693707 398857
685046 871337
617720 707746
173475 659542
999254 12626
286792 729817
530646 540476
955711 225591
826712 397291
764237 205715
289373 390967
973044 922420
875153 739308
339430 72130
471964 459123
847453 202864
753593 919361
127726 412628
72079 607970
768747 112685
256946 589461
473497 508069
316615 739520
164595 569980
969060 646280
799195 711753
869444 661921
135305 892230
644683 201203
371795 192381
574707 573590
951058 290832
760221 540610
821818 992023
958005 496848
827442 860123
766349 728547
350126 59139
859516 544674
743079 431805
324046 651845
513012 919207
919171 727172
292794 534050
655141 681759
883626 461987
489907 254057
94529 711762
782764 849425
786577 876828
788295 378178
458855 436250
634054 173378
5146 82065
177352 319511
818776 353398
317193 865001
509 375261
435431 694931
695731 661735
647099 475338
138521 98316
301020 666200
286375 68119
897518 576130
826980 693253
852797 402528
618826 956774
84935 627961
295264 11188
73026 623955
786618 904266
200107 34652
746458 83001
721149 997819
569000 164207
315412 375144
83643 899348
687538 92574
392184 429157
74913 419948
993294 914924
796590 181380
775118 25937
680330 873604
620077 961708
843091 881720
3907 116858
58436 757967
745380 563636
128255 876070
838659 276154
390736 530488
21675 769988
759511 379673
714084 861082
927397 516054
604079 561389
513432 668442
229184 832692
991695 575679
642653 225069
717462 83988
652475 400390
987798 962036
887855 24489
280236 816001
326603 296310
818050 719623
429983 755070
584724 598349
960197 287598
96386 242079
496947 475641
522658 41724
642096 549173
790236 124195
609368 107701
193263 122148
87038 830763
805676 728151
884149 450512
904672 622817
155162 114890
812832 223081
467413 914058
280181 389915
701092 685044
214815 877342
207491 44454
255318 340360
26705 300639
507737 893081
181063 162361
437786 604416
591683 868767
110528 682559
804664 815392
716623 546898
821585 870901
386755 962024
14285 132419
611872 994596
155039 718507
124413 262385
339153 828808
966081 55196
192238 641099
801118 462868
