205798 24197 383
115013 696995 509
658923 784906 504
156745 608895 470
18255 253429 443
712394 194335 509
285299 743434 509
695198 653963 442
32257 658806 509
60176 609994 470
408358 496964 449
560276 420335 470
439536 550234 470
12199 706748 509
327269 37552 443
847627 297666 525
798337 480294 509
512914 155228 470
113811 424257 449
374261 291188 441
345255 91980 443
497208 746239 509
889344 905361 401
82432 181849 383
644814 725957 504
540304 133633 470
972448 63134 525
71735 344958 443
171146 749913 509
656156 742159 504
32789 183720 383
446837 825077 509
649687 790143 504
896630 965758 507
635698 237058 509
488392 433734 444
66750 558403 470
705969 812118 468
555395 109524 470
913445 71797 525
946390 191989 525
207425 126516 383
863421 883744 432
931876 503440 525
241990 272358 407
800928 269059 509
528758 172535 470
896676 182332 525
63048 997094 525
720172 236606 509
147437 162653 383
316269 452355 449
70637 201152 383
120005 364149 443
211262 77096 383
159135 740351 509
481612 732172 509
893218 405399 525
596568 265801 470
625978 749673 509
398013 353134 436
952595 793799 525
398406 583870 470
619773 71990 470
358543 603256 470
91465 386462 443
250215 839493 525
644961 923633 525
806586 775788 468
651397 670238 442
759161 404777 509
737764 437871 509
631499 937162 525
671162 454405 509
579209 689222 509
727555 676603 504
101847 450441 449
240727 946124 525
309603 581382 470
159409 970907 525
100107 506158 449
119878 561405 470
774823 655944 504
798309 294740 509
521164 962172 525
318899 908489 525
693191 4743 509
305517 334316 384
718255 460196 509
14366 279262 443
935192 635835 525
1915 961717 525
923725 121115 525
769306 158565 509
545979 142150 470
485556 640681 509
790894 596184 509
607712 473208 470
730926 666875 504
131849 313150 443
965476 61392 525
580302 571745 390
233085 682493 509
976496 357214 525
378213 232688 441
813217 186693 509
631858 495505 509
273522 926537 525
92148 976624 525
194286 377616 443
522515 761686 509
227831 776485 509
231472 982913 525
315194 173286 443
782713 523678 509
129782 836491 509
976630 792732 525
365120 154673 443
300678 796406 509
553543 844358 525
230171 896409 525
730563 734113 380
287291 730513 509
542917 206777 470
87265 884180 525
143849 188445 383
849804 30980 525
827645 919012 525
916743 973084 507
258216 755237 509
739029 679616 504
320403 724545 509
984299 197575 525
593708 949933 525
585593 285877 470
152959 979400 525
992907 118484 525
358835 913652 525
289888 330582 384
289254 949216 525
503437 114095 449
963700 321539 525
47234 932700 525
484327 565844 470
412411 867446 525
723151 300912 509
899978 940604 507
960746 579202 525
306734 46896 443
615022 787384 509
344826 458288 449
163479 374732 443
660831 783716 504
94014 559350 470
608712 403188 470
533772 50694 470
421435 91533 449
346796 175218 443
317327 751528 509
231856 218539 443
420013 493896 444
707622 36420 509
994661 291122 525
480050 982244 525
42466 930099 525
728032 695631 504
752292 737725 424
576415 697760 509
552924 699349 509
463010 354881 449
639296 471602 509
754368 797894 468
417287 844440 525
180108 106736 383
715165 98082 509
335995 23085 443
494951 452942 444
27840 890050 525
401376 636717 509
461963 73918 449
383772 264019 441
319970 275061 389
988837 272099 525
168679 373875 443
298574 341272 384
607434 89659 470
218960 199490 386
756147 577347 509
604610 848182 525
828208 534503 509
694460 891871 525
497096 310545 449
304101 964553 525
609420 636903 509
234027 359877 441
617940 77356 470
347815 891251 525
318533 79947 443
994548 734035 525
110910 546085 470
107790 663982 509
62483 787097 509
343803 298644 384
146391 405848 443
563827 852573 525
408926 170924 443
850521 400772 525
137981 583806 470
993381 938661 507
403999 492011 449
765642 862242 525
510022 770100 509
648128 875026 525
763761 775448 468
903193 467230 525
743170 7627 509
453713 111527 449
140370 70915 354
455697 899514 525
79600 991126 525
123634 630254 509
374250 722062 509
839648 973978 507
240521 473058 449
758432 458842 509
60093 711395 509
575351 304390 470
242232 240189 368
305079 744265 509
429510 33988 449
896471 962329 507
720821 626684 504
436665 467658 444
568308 191285 470
832004 592661 509
148000 380780 443
