263602 419860 449
26778 260610 443
163343 927725 525
249718 933554 525
481444 951289 525
472534 912472 525
654127 682841 442
198993 995529 525
491469 927755 525
764250 768826 468
440609 705157 509
192549 714239 509
906538 920441 476
857854 916036 476
988144 998041 440
358231 432743 449
278179 361670 441
158957 852905 525
80157 880990 525
833455 957335 525
22927 176810 383
631558 882448 525
113820 951844 525
924351 968728 507
877031 965559 507
365229 758916 509
875509 925308 476
999543 999804 290
295369 425268 449
627906 650033 416
170641 815059 509
230907 519489 470
336483 564049 470
673033 711220 504
296245 373141 441
405494 640840 509
225068 343582 443
370800 809067 509
667618 763080 504
993285 994696 365
694709 888125 525
498869 818547 509
5583 40996 324
446222 762717 509
733307 905759 525
4900 799954 509
121398 569170 470
385035 451621 449
172015 790340 509
399333 429461 449
34203 217763 386
448268 830538 509
706025 903720 525
702395 853227 525
779434 905180 525
497556 528174 470
528408 571321 452
242725 761470 509
298053 517365 470
17971 201957 383
755473 833818 468
319180 957879 525
735095 831239 468
73126 390115 443
608655 914252 525
589172 895645 525
99768 177770 383
521031 896579 525
592513 861983 525
198910 703529 509
883841 957394 507
143853 493478 449
694076 946019 525
908642 923056 476
329985 868338 525
428754 695369 509
180453 639904 509
78387 742776 509
251546 703642 509
633037 673557 442
763530 875320 525
661938 784214 504
432955 847730 525
539592 758194 509
851679 928353 476
339547 455420 449
49222 89150 351
27891 294765 443
322283 743197 509
800641 835000 450
483453 739984 509
719383 972577 525
281602 790870 509
405890 520241 470
866512 885641 432
517910 650560 509
438545 666416 509
970306 992492 458
127729 999008 525
834781 918119 525
275450 343963 389
339009 518807 470
810547 826709 450
201026 809450 509
2599 737034 509
107877 159184 383
29103 217211 386
271672 621899 470
56485 212705 383
443595 887932 525
434852 591793 470
752753 810932 468
430087 839112 525
863124 869185 388
78454 789827 509
396714 844781 525
452544 815231 509
444753 460775 387
566663 988517 525
163182 687254 509
780785 968094 525
819459 938928 525
312138 328363 384
618202 719267 509
391025 767877 509
251053 492221 449
481610 989546 525
39290 802830 509
283569 315497 389
617151 701854 509
680371 789700 504
276861 337329 389
106372 752892 509
736181 926374 525
631830 683505 442
307812 487951 449
759632 849861 525
148191 809705 509
970527 974257 458
31970 510387 449
353730 729941 509
227138 665065 509
991216 991593 321
541439 689096 509
73838 558387 470
4167 406986 443
513379 837716 509
288598 444841 449
757767 953801 525
723800 847276 525
578544 936562 525
796666 994023 525
616925 737356 509
458690 500258 444
416860 906939 525
302311 527504 470
744550 829789 468
556938 579390 421
27681 892018 525
793030 912906 525
181282 586169 470
195231 854005 525
694469 857127 525
943915 958986 414
891854 922521 476
641185 897020 525
622258 623629 310
16029 343363 443
210199 393575 443
158721 334550 443
110665 699192 509
557102 807690 509
143430 320248 443
935826 956802 507
714669 854511 525
617738 880890 525
258932 914203 525
544052 782888 509
157261 651894 509
660087 973641 525
820704 927716 525
134703 376834 443
336555 806996 509
945419 981866 458
854324 887921 445
651282 666639 442
995024 995584 290
379604 992924 525
420319 743663 509
876041 923159 476
987936 993431 352
820572 835674 419
739534 936353 525
114095 145289 375
24330 943934 525
80083 354618 443
649382 731502 504
232853 846158 525
577784 706759 509
786397 882096 525
842681 959108 507
575689 960314 525
152708 225933 386
188363 285801 443
704556 821580 504
724074 737861 424
491739 524151 470
974847 985649 427
8974 816383 509
438862 862890 525
298819 503938 449
401869 648815 509
899559 971906 507
540700 687683 509
3682 600904 470
953890 965337 414
846553 923196 476
421503 987021 525
637778 659377 429
911557 921243 432
461284 960179 525
821871 887302 525
974425 976813 383
69261 421050 449
732704 960189 525
880799 881402 295
690162 740599 504
81752 757659 509
449695 840223 525
234041 445767 449
288562 768824 509
579916 649265 509
732531 890939 525
503215 776761 509
49469 313379 443
365107 674942 509
239862 394326 441
69580 681714 509
966145 967690 365
680214 768531 504
651642 720103 504
993315 993588 246
681159 848298 525
909616 926106 476
336775 752716 509
779885 987139 525
930063 948479 507
683671 752208 504
264104 904314 525
2285 258875 443
183191 539393 470
327208 588582 470
521783 877813 525
346601 531868 470
535778 982158 525
371574 648431 509
984739 989203 427
142446 537803 470
372015 704623 509
420389 573453 470
565670 803439 509
375083 927684 525
218403 486551 449
570545 780510 509
566774 777208 509
856126 923823 476
268996 761783 509
457169 852094 525
829738 859682 525
400926 835509 509
233520 344890 407
279342 605422 470
126656 774219 509
