638475 481079
143775 352399
215222 485499
779254 481362
39165 197148
546279 547936
49231 624052
482316 44884
139726 582523
150393 682814
293006 951104
129361 551093
494528 720050
229432 203956
156048 621136
83682 600180
7536 469905
397655 600686
242933 963634
136192 502135
806370 899795
574303 296988
545210 908182
36535 217190
222627 724681
319705 753266
446306 72953
845372 914132
922266 574035
156674 745605
799510 745010
213825 232472
247837 280631
244913 532138
159165 585133
852202 714441
523196 380533
33235 40967
965226 739453
425020 193937
671217 268320
122286 175113
581462 487411
553977 227698
678213 172860
7454 291863
978075 18919
604792 679103
296263 53691
725254 274090
991263 685700
627326 65449
487017 587577
905927 749013
616765 124075
935596 945156
373326 906216
13935 897794
534704 864321
969984 112760
538636 705843
809162 91395
922765 834073
888193 917610
623845 606332
867039 759542
427748 192649
174286 181609
437975 991591
616155 704132
817299 925466
114680 783410
109885 279251
601457 826008
849670 153097
2558 673470
258719 812636
614555 827260
537378 631547
892501 986942
408469 340269
160300 439292
335376 686466
25988 637951
950689 85304
521226 131484
386320 621491
406598 580803
123442 806712
195213 355270
437711 100138
729525 144234
581938 473640
141479 129730
2208 807427
264698 708343
166502 903763
937275 231321
643917 970387
950272 77700
644364 657164
17178 693508
219819 88080
404397 664364
165887 349032
226003 98859
581661 346452
784236 217591
572646 644029
634742 282555
311248 340034
870880 933119
520750 88714
764015 586054
340036 33699
304480 786209
301583 118908
726510 770134
601449 246036
981569 388783
666877 984400
215406 419043
265995 101896
57663 631968
871056 283613
329527 669807
58260 743829
108336 392504
887558 827859
865072 541180
543222 977855
656219 722061
177681 73132
883019 425365
64820 204909
701227 70419
998126 793778
166163 854352
965840 539090
186282 424391
499821 745104
80881 794944
572948 329671
641553 559456
706236 920540
125575 692931
513611 611403
881917 574468
486748 171371
146889 306134
45631 332695
317728 340066
739709 875648
252092 873653
122148 228451
958439 513840
592482 563625
938683 418819
995765 937688
826303 84051
807585 846342
632583 930917
340572 372226
673805 788000
858559 210207
200578 634995
940072 612073
536593 757118
831442 252833
46389 595267
90653 152250
804704 572774
377008 618169
482517 676517
906338 869484
313063 643877
807921 440916
451820 325346
422870 564837
402122 294971
396471 740600
244396 401488
572582 467261
47245 463670
653500 809158
556674 952169
114881 488663
602543 282260
667514 296480
941783 548525
748971 840257
501628 666675
568667 918904
292859 693788
391082 493395
977760 903313
447833 115834
435291 767969
288692 301761
114206 866149
962043 769601
517731 965398
685853 971420
429575 36367
150894 455600
555889 446610
969738 961358
563926 659131
691372 759241
687466 864457
841361 90502
302306 859388
560570 308497
433044 221116
105078 595982
846291 887730
769211 601724
694760 281573
673482 243929
937127 688194
603638 970015
748875 681451
847059 584083
857004 962535
899109 572384
440971 963890
611657 895102
484179 358355
761663 544591
412278 670128
361519 260879
517000 898015
605848 932986
803977 657579
29446 587173
614502 678347
537866 401686
878471 688915
705869 50311
732949 628939
739583 45560
265704 117583
697902 973429
127124 47287
875939 315822
325895 240305
897922 788755
909635 105084
261505 507855
82399 531808
587749 160616
379428 300286
397637 566566
298125 130581
20541 378696
205184 91159
102678 662200
