970560 613465
807843 471088
676135 392158
655265 744112
828700 220063
557996 871912
753328 524712
133538 456916
476686 485443
426765 494647
71757 37892
538075 665170
311260 464220
537594 105091
315436 99875
792558 503991
869788 476867
696372 274202
959864 467493
38451 497334
204418 401031
423364 268429
796401 803723
538807 734396
2813 474223
543542 605579
230349 385259
701628 526803
375023 920100
393329 889624
576346 551849
989809 260119
165255 705937
6594 917416
672518 399464
652336 688183
718293 703194
984803 203900
357910 126473
893438 938843
925719 674210
235440 204867
529038 715843
455663 830206
438283 861827
799829 462186
527826 571889
962325 283484
543746 263283
287535 795672
689430 670757
28118 678977
153276 409748
710751 900069
771365 423206
211175 76165
607083 408832
48521 954464
325696 697188
390534 678569
444396 725225
636878 92222
374427 367490
860335 131746
995050 586311
65081 725882
900859 257524
426466 369282
296217 468394
504491 461137
767255 486262
937294 362613
4257 979029
475343 147575
241722 830925
298958 5836
5751 151117
831386 886518
813180 576776
466264 169275
608782 793176
340419 340592
760483 170627
306543 663713
391098 228118
582109 592597
112766 27457
996195 333877
174474 704052
417314 762770
121863 734658
451935 263501
484302 675939
969721 279360
384486 246182
802378 27548
206342 949719
871559 347109
822818 560090
885007 377484
187073 571460
518088 489560
557074 70748
330558 475302
621380 483508
540050 637651
29562 850777
30273 298791
403270 685393
933029 987807
440256 991402
226087 211456
654214 803292
367900 443002
618470 715114
99211 440006
471248 687465
39304 388478
904015 325713
29287 488554
574205 322249
947843 378826
453124 379692
575452 303984
479956 729829
290334 754218
172305 973891
456861 709437
513730 970064
82544 480053
828949 617832
969493 9470
11709 937950
67887 953636
971224 518256
931556 366528
704209 916209
49406 586376
347648 599546
562501 752620
130865 784188
805870 38995
930803 968297
695140 367449
787017 79137
854743 259888
459205 924577
821734 295787
878332 624628
193106 831281
158796 885234
71959 281875
761595 59652
608222 112789
837461 117956
894273 385754
576197 14217
678495 207903
192216 405007
643502 445075
92894 106685
516244 618501
782567 250093
276883 189042
997547 927693
335242 118788
855974 692527
456243 99386
536733 666916
289294 250478
97786 664724
742897 862741
581497 15031
896213 867674
62274 227642
457168 546565
23670 330816
426842 213429
956464 10696
263427 238131
855761 248443
152326 95624
352349 732236
743460 817900
572722 470393
60472 979380
367472 528219
545730 474503
824081 341979
349528 584541
438040 82302
748643 322541
140916 47056
123309 134153
638832 741104
342016 642319
441366 172657
667957 367429
321130 513624
35906 848893
776719 842178
169193 111540
864239 851717
203069 458645
441678 581387
397068 926176
482357 17886
494273 533827
637997 784816
44386 551029
289236 529504
653880 823801
303173 782624
420675 927249
505896 588110
205002 28689
601804 770591
354414 96005
36237 916265
965987 514712
932010 405989
659484 340709
844964 356886
250635 664664
203558 481289
792378 338615
454933 901643
911019 36111
821324 750628
961116 805720
807594 869726
243993 75091
422493 998604
19075 432348
496408 821654
