626792 368163 509
473179 177768 449
834860 835830 344
663775 821297 504
853990 752818 525
700842 289022 509
876128 739234 525
334222 658588 509
629958 489561 509
823331 637849 504
846755 579685 525
711066 130890 509
112185 852706 525
114673 207678 383
924621 923497 370
288530 7980 443
660072 473869 509
377431 659780 509
284115 640336 509
898432 663630 525
10074 950608 525
607433 450288 470
264485 144099 443
445559 216423 449
869022 390737 525
808272 564774 509
519072 346847 470
756365 387532 509
360 963610 525
729936 896476 525
107358 183607 383
688749 848888 525
538680 667882 509
852436 272859 525
460843 429759 400
864400 296203 525
4398 136662 354
207215 760687 509
772283 514312 509
231200 668940 509
98393 469676 449
191107 935347 525
265149 415307 449
662068 308489 509
556988 385586 470
456949 515907 470
216067 980680 525
766093 403264 509
28018 418751 449
497034 923610 525
486943 643372 509
553232 38062 470
592174 984011 525
758916 869069 525
179464 623289 470
941453 784285 525
775599 224502 509
850830 417975 525
146328 897922 525
673219 169534 509
191052 312413 443
322970 587546 470
635241 386284 509
99694 744561 509
116534 156790 383
770988 86319 509
751483 412271 509
798857 609990 509
118849 242104 443
110755 485585 449
600113 575796 434
342107 683095 509
341310 969735 525
551842 938387 525
150821 300931 443
266082 648921 509
408917 615907 470
206345 681908 509
195425 262011 443
818718 187651 509
425888 458824 400
462983 74115 449
57741 291362 443
346597 948978 525
55420 704167 509
135771 735272 509
845998 535473 525
60865 922469 525
845177 33556 525
69136 401330 443
916784 997186 507
234384 919935 525
253035 443697 449
729927 899577 525
785267 474722 509
348128 906877 525
921990 770177 525
939777 462644 525
5432 558957 470
90784 165620 383
855297 410151 525
387072 402995 436
430279 766344 509
426829 372444 449
889540 397725 525
747733 581872 509
934779 573870 525
556912 152732 470
1266 513183 470
671165 845564 525
592423 84566 470
503475 314778 449
868604 60165 525
573192 208608 470
54372 578596 470
207295 886683 525
666649 488076 509
590107 809639 509
255540 723345 509
385149 594280 470
620558 530603 452
688535 527891 509
821475 428964 509
78936 442454 449
189625 4330 383
449304 805890 509
598546 37802 470
919125 264841 525
198758 408088 443
300945 550446 470
314819 374280 441
447359 585761 470
805855 255853 509
969402 404913 525
344055 195902 443
819687 398503 509
412896 383687 449
661531 533250 509
175152 304705 443
808161 792906 468
928696 801842 525
462656 636650 509
99316 378661 443
481325 203922 449
592501 900673 525
370278 908090 525
490980 45486 449
533191 438668 470
268502 840233 525
889830 140119 525
734122 36220 509
807410 66689 509
388662 493251 449
970437 422027 525
555284 985028 525
248322 464624 449
763880 350922 509
735976 884058 525
529904 88527 470
952253 863993 507
731441 144442 509
76783 500680 449
90876 721288 509
427513 31815 449
63435 205147 383
901687 568701 525
834887 887544 525
639539 885362 525
450730 527204 470
630376 50917 509
590995 416681 470
1580 162264 383
972692 736660 525
617405 898094 525
520377 555104 452
422238 277903 449
588370 609692 403
281292 176736 443
163941 906944 525
942741 434753 525
772045 787410 437
825811 358048 509
911985 370985 525
500706 227912 449
871474 178461 525
533993 997101 525
632788 387220 509
839521 911924 476
460230 147571 449
499842 317416 449
326681 562800 470
49703 25405 324
823109 968084 525
332593 304180 384
762490 712528 424
555690 558502 359
754031 301454 509
67372 10510 340
176342 887110 525
301509 398493 441
452378 392603 449
743342 58726 509
58556 50464 340
603225 729699 509
809771 524574 509
903868 182011 525
838575 82296 525
462279 70644 449
515319 12146 470
913330 287509 525
521009 345601 470
962107 241044 525
476460 616952 470
484666 209059 449
743748 557355 509
882665 105650 525
802029 714719 468
802935 632095 504
639627 475769 509
524520 29562 470
253740 668034 509
325501 743658 509
422117 746326 509
658639 455580 509
47941 140052 354
981073 176245 525
101027 764282 509
699665 349634 509
936689 970287 507
160448 657881 509
808810 128687 509
501922 723979 509
810119 622153 509
477309 859689 525
945437 787897 525
602160 650753 509
409303 445568 449
758914 335249 509
606875 41612 470
536756 553388 452
346343 660808 509
623191 414163 470
665417 648639 442
423779 710523 509
176363 703632 509
262301 676467 509
108809 584991 470
354081 351641 348
243386 421642 449
132448 66084 354
18188 302436 443
313107 418800 449
768849 320300 509
44847 100350 351
733852 81033 509
766553 493795 509
227792 45861 386
523826 477591 470
290038 76007 443
181859 275646 443
303460 304187 340
784216 127179 509
450455 447144 369
225383 88270 386
262888 740544 509
924148 567494 525
501983 977117 525
212904 10337 383
708339 884354 525
818390 900070 525
121288 825834 509
