688630 771556 504
665050 170851 509
632895 270574 509
780680 466012 509
54448 770561 509
457534 503184 444
823313 810139 450
952853 786862 525
461934 114731 449
79040 465060 449
647984 127899 509
62520 422631 449
84587 784275 509
109433 604019 470
151536 109127 375
133545 431394 449
240551 429786 449
744641 453154 509
246937 512201 470
821822 806065 450
329007 161990 443
578794 675375 509
51378 458797 449
829749 840481 525
523813 181310 470
25495 891282 525
107819 691603 509
901425 205131 525
340946 783162 509
532294 607412 452
523009 509353 470
833517 935654 525
320373 169739 443
534256 762487 509
582103 426347 470
164013 883336 525
921254 287767 525
23464 475904 449
838948 28159 525
921314 505379 525
182949 106580 383
713520 906610 525
227699 249916 443
871126 79358 525
978890 989180 427
898070 718350 525
115397 462907 449
755389 221544 509
497918 16837 449
139340 40509 354
979437 548647 525
479453 780299 509
553206 895384 525
562690 57946 470
506413 802703 509
523439 89547 470
489741 668102 509
318886 527003 470
677235 489485 509
168924 652497 509
914188 775200 525
738672 650060 504
140514 51507 354
480854 795969 509
352077 447940 449
971947 232438 525
671794 847522 525
850540 85946 525
114791 940992 525
974132 25651 525
255986 100470 443
58727 337329 443
954210 147059 525
170614 410789 449
409293 766385 509
595416 534538 452
990966 861107 507
372507 242917 441
618250 451729 470
434561 125871 449
699446 71457 509
83417 324102 443
975323 975133 228
719922 76605 509
874943 866713 432
933973 706579 525
243160 555805 470
252788 973564 525
778543 630391 504
54154 156074 375
532491 686906 509
233656 466981 449
308521 870816 525
966359 312855 525
749650 701791 504
49268 281286 443
288314 850516 525
801205 618612 509
847021 939705 507
682658 990036 525
736933 490850 509
437411 241853 449
138959 667278 509
729708 302064 509
483761 647927 509
556620 58970 470
615418 548828 447
533492 70963 470
354676 706284 509
737036 810660 468
494931 933320 525
250391 913647 525
576772 43294 470
769331 266663 509
824185 646295 504
529803 998771 525
93102 639512 509
665199 5237 509
107031 796671 509
466478 14870 449
851548 901547 445
9985 362100 443
492447 500320 426
60925 999222 525
223739 3892 386
421281 98959 449
608154 86611 470
303671 214308 443
413000 886055 525
570531 42043 470
561097 503008 470
394295 162298 443
278325 640289 509
498744 312825 449
116742 688726 509
744373 960071 525
881203 739289 525
469363 889254 525
687867 673284 398
396803 40190 443
815242 153813 509
988399 359920 525
168904 923296 525
48593 848257 525
884628 546740 525
190489 830145 509
824569 43038 509
820836 384528 509
882864 477803 525
479521 51317 449
968087 817510 525
98893 14471 351
134266 949398 525
604919 80363 470
188320 118505 383
491735 717921 509
955044 109058 525
95302 983159 525
519128 345401 470
243295 424248 449
379487 416669 449
153142 843232 525
358984 741219 509
175847 711120 509
881323 321291 525
994515 340572 525
436123 233534 449
209304 384379 443
915086 284426 525
754417 774554 468
500736 208277 449
243311 968646 525
670601 351980 509
437915 722097 509
477409 691132 509
43710 331305 443
106680 999678 525
348974 255488 441
236705 165324 443
287620 632541 509
251252 236535 368
541793 736553 509
665116 638648 429
541435 976317 525
347645 249 443
803308 54068 509
275952 997095 525
540406 228257 470
996246 590109 525
113169 506152 449
351022 336440 441
622608 482657 470
809721 139854 509
930665 124933 525
643098 299305 509
345024 512553 470
591663 147176 470
302807 107814 443
559616 398649 470
239893 597402 470
89866 301601 443
744102 122792 509
988632 850555 507
698582 829746 504
711598 643734 504
46885 238742 443
972649 678560 525
497880 471923 426
942783 353382 525
298520 357449 441
635646 662636 429
235088 414618 449
334918 477261 449
589025 866132 525
644911 171538 509
157424 490965 449
491986 762208 509
660674 628504 429
625452 597120 447
440438 401066 449
537969 12710 470
188654 697780 509
858873 949325 507
93722 667487 509
291101 79145 443
570072 980286 525
899145 779955 525
876248 305078 525
241957 762797 509
860776 274779 525
205239 624301 470
189211 64370 383
47753 169233 383
612688 215298 470
330981 553622 470
719472 698746 504
444434 926333 525
373222 828986 509
986939 230601 525
100744 754229 509
101077 639756 509
875022 94554 525
324334 563311 470
500104 982052 525
346596 931838 525
756867 413736 509
499260 452603 444
297628 582163 470
897208 429953 525
477415 435790 444
